<svg width="153" height="41" viewBox="0 0 153 41" fill="none" xmlns="http://www.w3.org/2000/svg">
<path d="M69.1465 18.0469V20.6992H67.6152L67.5332 19.585H65.7012V26.5986L66.7676 26.8037V28H62.6387V26.8037L63.7051 26.5986V19.585H61.8799L61.7979 20.6992H60.2734V18.0469H69.1465ZM71.1412 26.8037L72.1051 26.5986V18.7441L71.0387 18.5391V17.3359H74.0943V21.5469C74.3268 21.2051 74.6116 20.9408 74.9488 20.7539C75.2861 20.5625 75.6598 20.4668 76.0699 20.4668C76.8447 20.4668 77.4508 20.7243 77.8883 21.2393C78.3303 21.7497 78.5514 22.5404 78.5514 23.6113V26.5986L79.5084 26.8037V28H75.6939V26.8037L76.5553 26.5986V23.5977C76.5553 23.0234 76.4527 22.6178 76.2477 22.3809C76.0471 22.1393 75.7464 22.0186 75.3453 22.0186C75.0673 22.0186 74.8235 22.0687 74.6139 22.1689C74.4088 22.2692 74.2356 22.4105 74.0943 22.5928V26.5986L74.9557 26.8037V28H71.1412V26.8037ZM85.0236 28.1436C83.9572 28.1436 83.105 27.8018 82.467 27.1182C81.829 26.4346 81.51 25.5664 81.51 24.5137V24.2402C81.51 23.1419 81.8107 22.2373 82.4123 21.5264C83.0184 20.8154 83.8296 20.4622 84.8459 20.4668C85.8439 20.4668 86.6187 20.7676 87.1701 21.3691C87.7215 21.9707 87.9973 22.7842 87.9973 23.8096V24.8965H83.5812L83.5676 24.9375C83.604 25.4251 83.7658 25.8262 84.0529 26.1406C84.3446 26.4551 84.7388 26.6123 85.2355 26.6123C85.6776 26.6123 86.0445 26.569 86.3361 26.4824C86.6278 26.3913 86.9468 26.25 87.2932 26.0586L87.8332 27.2891C87.5279 27.5306 87.1314 27.7334 86.6437 27.8975C86.1607 28.0615 85.6206 28.1436 85.0236 28.1436ZM84.8459 22.0049C84.4768 22.0049 84.1851 22.1462 83.9709 22.4287C83.7567 22.7113 83.6245 23.0827 83.5744 23.543L83.5949 23.5771H86.0422V23.3994C86.0422 22.9756 85.9419 22.6383 85.7414 22.3877C85.5454 22.1325 85.2469 22.0049 84.8459 22.0049ZM90.2996 26.8037L91.3592 26.5986V19.4551L90.2996 19.25V18.0469H94.367V19.25L93.3553 19.4551V22.1143H94.2234L96.1375 19.332L95.5496 19.25V18.0469H99.4939V19.25L98.4139 19.4346L95.9666 22.7021L98.7146 26.6328L99.7127 26.8037V28H95.7684V26.8037L96.3836 26.7217L94.4695 23.8438H93.3553V26.5986L94.367 26.8037V28H90.2996V26.8037ZM106.465 28C106.411 27.877 106.363 27.7516 106.322 27.624C106.281 27.4919 106.249 27.3597 106.226 27.2275C105.989 27.501 105.7 27.722 105.358 27.8906C105.021 28.0592 104.633 28.1436 104.196 28.1436C103.471 28.1436 102.895 27.9476 102.466 27.5557C102.042 27.1592 101.83 26.6214 101.83 25.9424C101.83 25.2497 102.108 24.7142 102.664 24.3359C103.22 23.9577 104.036 23.7686 105.112 23.7686H106.13V23.0439C106.13 22.6885 106.028 22.4128 105.823 22.2168C105.618 22.0208 105.315 21.9229 104.913 21.9229C104.686 21.9229 104.483 21.9502 104.305 22.0049C104.127 22.055 103.984 22.1165 103.874 22.1895L103.745 22.9824H102.241L102.247 21.3418C102.612 21.0957 103.029 20.8883 103.498 20.7197C103.972 20.5511 104.487 20.4668 105.043 20.4668C105.959 20.4668 106.702 20.6924 107.272 21.1436C107.846 21.5902 108.133 22.2282 108.133 23.0576V26.1133C108.133 26.2272 108.133 26.3343 108.133 26.4346C108.138 26.5348 108.147 26.6305 108.161 26.7217L108.769 26.8037V28H106.465ZM104.736 26.667C105.037 26.667 105.31 26.6032 105.556 26.4756C105.802 26.3434 105.994 26.1794 106.13 25.9834V24.8555H105.112C104.688 24.8555 104.367 24.9557 104.148 25.1562C103.929 25.3522 103.82 25.5892 103.82 25.8672C103.82 26.1178 103.899 26.3138 104.059 26.4551C104.223 26.5964 104.449 26.667 104.736 26.667ZM110.641 18.5391V17.3359H113.703V26.5986L114.667 26.8037V28H110.743V26.8037L111.707 26.5986V18.7441L110.641 18.5391ZM116.662 26.8037L117.626 26.5986V22.0117L116.559 21.8066V20.6035H119.622V26.5986L120.579 26.8037V28H116.662V26.8037ZM119.622 18.833H117.626V17.3359H119.622V18.833ZM129.785 24.5068C129.785 25.6097 129.539 26.4915 129.047 27.1523C128.555 27.8132 127.844 28.1436 126.914 28.1436C126.481 28.1436 126.105 28.0547 125.786 27.877C125.467 27.6947 125.198 27.4326 124.98 27.0908L124.836 28H123.113V18.7441L122.054 18.5391V17.3359H125.103V21.3896C125.317 21.0934 125.572 20.8656 125.868 20.7061C126.169 20.5465 126.513 20.4668 126.901 20.4668C127.839 20.4668 128.555 20.8223 129.047 21.5332C129.539 22.2396 129.785 23.1829 129.785 24.3633V24.5068ZM127.796 24.3633C127.796 23.6432 127.689 23.0736 127.475 22.6543C127.265 22.2305 126.905 22.0186 126.395 22.0186C126.085 22.0186 125.823 22.0846 125.609 22.2168C125.394 22.3444 125.226 22.529 125.103 22.7705V25.8945C125.226 26.1224 125.394 26.2956 125.609 26.4141C125.827 26.5326 126.094 26.5918 126.408 26.5918C126.923 26.5918 127.283 26.4118 127.488 26.0518C127.694 25.6872 127.796 25.1722 127.796 24.5068V24.3633ZM132.265 26.8037L133.222 26.5986V22.0117L132.163 21.8066V20.6035H135.082L135.171 21.6836C135.344 21.3008 135.567 21.0023 135.841 20.7881C136.114 20.5739 136.431 20.4668 136.791 20.4668C136.896 20.4668 137.005 20.4759 137.119 20.4941C137.237 20.5078 137.335 20.526 137.413 20.5488L137.201 22.3672L136.381 22.3467C136.089 22.3467 135.847 22.4036 135.656 22.5176C135.465 22.6315 135.319 22.7933 135.219 23.0029V26.5986L136.176 26.8037V28H132.265V26.8037ZM139.346 26.8037L140.31 26.5986V22.0117L139.244 21.8066V20.6035H142.306V26.5986L143.263 26.8037V28H139.346V26.8037ZM142.306 18.833H140.31V17.3359H142.306V18.833ZM151.355 23.1465H150.016L149.804 22.2236C149.667 22.1143 149.494 22.0231 149.284 21.9502C149.079 21.8773 148.851 21.8408 148.601 21.8408C148.25 21.8408 147.972 21.9206 147.767 22.0801C147.562 22.235 147.459 22.431 147.459 22.668C147.459 22.8913 147.557 23.0781 147.753 23.2285C147.949 23.3743 148.341 23.5042 148.929 23.6182C149.845 23.8005 150.524 24.0693 150.966 24.4248C151.408 24.7757 151.629 25.2611 151.629 25.8809C151.629 26.5462 151.342 27.0908 150.768 27.5146C150.198 27.9339 149.446 28.1436 148.512 28.1436C147.942 28.1436 147.418 28.0615 146.939 27.8975C146.465 27.7288 146.044 27.4896 145.675 27.1797L145.654 25.5186H147.049L147.322 26.4824C147.441 26.5827 147.603 26.6579 147.808 26.708C148.013 26.7536 148.227 26.7764 148.45 26.7764C148.856 26.7764 149.163 26.7035 149.373 26.5576C149.587 26.4118 149.694 26.2135 149.694 25.9629C149.694 25.7441 149.587 25.555 149.373 25.3955C149.159 25.236 148.765 25.0947 148.19 24.9717C147.32 24.7939 146.661 24.5319 146.215 24.1855C145.773 23.8346 145.552 23.3584 145.552 22.7568C145.552 22.137 145.807 21.6038 146.317 21.1572C146.828 20.7061 147.555 20.4805 148.498 20.4805C149.072 20.4805 149.615 20.5579 150.125 20.7129C150.64 20.8678 151.043 21.0661 151.335 21.3076L151.355 23.1465Z" fill="#2D404E"/>
<path fill-rule="evenodd" clip-rule="evenodd" d="M0 30.8887L6.48786 34.6109V24.5017L8.71117 23.1362L10.9976 24.5017V37.2778L17.4855 41V22.9501L13.284 20.5307L17.4855 18.1119V0L10.9976 3.78421V16.561L6.48786 19.1659V6.38907L0 10.1713V30.8887ZM39.5431 30.8887V22.9508L35.3417 20.5314L39.5431 18.1126V10.1746L22.0603 0V41L39.5431 30.8887ZM28.4831 19.1659V9.05597L33.0553 11.7242V16.5624L28.4831 19.1659ZM28.4831 31.9447V24.5017L33.0553 21.8334V29.3378L28.4831 31.9447Z" fill="#F4555A"/>
</svg>
